{
	"id": "3cfcd8ed-fc56-4f63-ba56-527f8bb6b819",
	"name": "Generate data sqs",
	"values": [
		{
			"key": "userId",
			"value": "9913014c-fa88-476d-b117-f74d591018ab",
			"type": "default",
			"enabled": true
		},
		{
			"key": "amount",
			"value": "540",
			"type": "default",
			"enabled": true
		},
		{
			"key": "now",
			"value": "",
			"type": "any",
			"enabled": true
		},
		{
			"key": "cuits",
			"value": "3423434343433",
			"type": "default",
			"enabled": true
		},
		{
			"key": "prevLevelName",
			"value": "Nivel 1",
			"type": "default",
			"enabled": true
		},
		{
			"key": "prevLevelCode",
			"value": "LVL01",
			"type": "default",
			"enabled": true
		},
		{
			"key": "currentLevelName",
			"value": "Nivel 2",
			"type": "default",
			"enabled": true
		},
		{
			"key": "currentLevelCode",
			"value": "LVL02",
			"type": "default",
			"enabled": true
		}
	],
	"_postman_variable_scope": "environment",
	"_postman_exported_at": "2023-04-17T21:28:41.643Z",
	"_postman_exported_using": "Postman/10.12.13"
}